cpu_tb.vcd
$date
	Wed Mar  4 11:20:29 2020
$end
$version
	Icarus Verilog
$end
$timescale
	10ps
$end
$scope module cpu_tb $end
$var reg 1 ! clk $end
$var reg 1 " reset $end
$scope module micpu $end
$var wire 1 ! clk $end
$var wire 1 " reset $end
$var wire 1 # wez $end
$var wire 1 $ wesp $end
$var wire 1 % we3 $end
$var wire 1 & s_z $end
$var wire 1 ' s_inm $end
$var wire 1 ( s_inc $end
$var wire 1 ) push $end
$var wire 1 * pop $end
$var wire 6 + opcode [5:0] $end
$var wire 3 , opalu [2:0] $end
$scope module datapath $end
$var wire 1 ! clk $end
$var wire 1 " reset $end
$var wire 1 - zalu $end
$var wire 1 # wez $end
$var wire 1 $ wesp $end
$var wire 1 % we3 $end
$var wire 8 . wd3 [7:0] $end
$var wire 1 & s_z $end
$var wire 10 / s_sumador [9:0] $end
$var wire 10 0 s_pila [9:0] $end
$var wire 10 1 s_pc [9:0] $end
$var wire 10 2 s_mux_pc [9:0] $end
$var wire 1 ' s_inm $end
$var wire 1 ( s_inc $end
$var wire 8 3 s_alu [7:0] $end
$var wire 8 4 rd2 [7:0] $end
$var wire 8 5 rd1 [7:0] $end
$var wire 1 ) push $end
$var wire 1 * pop $end
$var wire 6 6 opcode [5:0] $end
$var wire 3 7 op_alu [2:0] $end
$var wire 16 8 instruccion [15:0] $end
$var wire 10 9 e_pc [9:0] $end
$scope module banco_registros $end
$var wire 1 ! clk $end
$var wire 4 : ra1 [3:0] $end
$var wire 4 ; ra2 [3:0] $end
$var wire 4 < wa3 [3:0] $end
$var wire 1 % we3 $end
$var wire 8 = wd3 [7:0] $end
$var wire 8 > rd2 [7:0] $end
$var wire 8 ? rd1 [7:0] $end
$upscope $end
$scope module ffz $end
$var wire 1 ! clk $end
$var wire 1 " reset $end
$var wire 1 - d $end
$var wire 1 # carga $end
$var reg 1 & q $end
$upscope $end
$scope module memoria_programa $end
$var wire 1 ! clk $end
$var wire 16 @ rd [15:0] $end
$var wire 10 A a [9:0] $end
$upscope $end
$scope module mux_pc_stack $end
$var wire 10 B y [9:0] $end
$var wire 1 * s $end
$var wire 10 C d1 [9:0] $end
$var wire 10 D d0 [9:0] $end
$upscope $end
$scope module mux_sum_pal $end
$var wire 10 E d0 [9:0] $end
$var wire 10 F y [9:0] $end
$var wire 1 ( s $end
$var wire 10 G d1 [9:0] $end
$upscope $end
$scope module mux_wd3 $end
$var wire 8 H d1 [7:0] $end
$var wire 8 I y [7:0] $end
$var wire 1 ' s $end
$var wire 8 J d0 [7:0] $end
$upscope $end
$scope module pc $end
$var wire 1 ! clk $end
$var wire 10 K d [9:0] $end
$var wire 1 L enable $end
$var wire 1 " reset $end
$var reg 10 M q [9:0] $end
$upscope $end
$scope module stack $end
$var wire 1 ! clk $end
$var wire 10 N entrada [9:0] $end
$var wire 1 " reset $end
$var wire 1 $ weSP $end
$var wire 10 O salida [9:0] $end
$var wire 10 P s_sp [9:0] $end
$var wire 1 ) push $end
$var wire 1 * pop $end
$var wire 10 Q e_sp [9:0] $end
$var wire 10 R dir [9:0] $end
$scope module memoria $end
$var wire 1 ! clk $end
$var wire 10 S entrada [9:0] $end
$var wire 10 T salida [9:0] $end
$var wire 1 ) push $end
$var wire 1 * pop $end
$var wire 10 U dir [9:0] $end
$upscope $end
$scope module mux $end
$var wire 10 V y [9:0] $end
$var wire 1 * s $end
$var wire 10 W d1 [9:0] $end
$var wire 10 X d0 [9:0] $end
$upscope $end
$scope module op $end
$var wire 10 Y e2 [9:0] $end
$var wire 1 * selector $end
$var wire 10 Z salida [9:0] $end
$var wire 10 [ e1 [9:0] $end
$upscope $end
$scope module sp $end
$var wire 1 ! clk $end
$var wire 10 \ d [9:0] $end
$var wire 1 " reset $end
$var wire 1 $ enable $end
$var reg 10 ] q [9:0] $end
$upscope $end
$upscope $end
$scope module sumador $end
$var wire 10 ^ a [9:0] $end
$var wire 10 _ b [9:0] $end
$var wire 10 ` y [9:0] $end
$upscope $end
$scope module uni_art_log $end
$var wire 8 a a [7:0] $end
$var wire 8 b b [7:0] $end
$var wire 8 c y [7:0] $end
$var wire 1 - zero $end
$var wire 3 d op_alu [2:0] $end
$var reg 8 e s [7:0] $end
$upscope $end
$upscope $end
$scope module u $end
$var wire 6 f opcode [5:0] $end
$var wire 1 & s_z $end
$var reg 3 g op_alu [2:0] $end
$var reg 1 * pop $end
$var reg 1 ) push $end
$var reg 1 ( s_inc $end
$var reg 1 ' s_inm $end
$var reg 1 % we3 $end
$var reg 1 $ wesp $end
$var reg 1 # wez $end
$upscope $end
$upscope $end
$upscope $end
$enddefinitions $end
#0
$dumpvars
bx g
b100000 f
bx e
bx d
bx c
b0 b
b0 a
b1 `
b1 _
b0 ^
b0 ]
b1111111111 \
b0 [
b1111111111 Z
b1 Y
b1111111111 X
b0 W
b1111111111 V
b1111111111 U
bz T
b0 S
b1111111111 R
b1111111111 Q
b0 P
bz O
b0 N
b0 M
1L
b1 K
bx J
b1 I
b1 H
b1 G
b1 F
b10010 E
b1 D
bz C
b1 B
b0 A
b1000000000010010 @
b0 ?
b0 >
b1 =
b10 <
b1 ;
b0 :
b1 9
b1000000000010010 8
bx 7
b100000 6
b0 5
b0 4
bx 3
b1 2
b0 1
bz 0
b1 /
b1 .
x-
bx ,
b100000 +
0*
0)
1(
1'
0&
1%
0$
0#
1"
1!
$end
#1000
0"
#3000
0!
#6000
b10 9
b10 B
b10 K
b10 .
b10 =
b10 I
b1 4
b1 >
b1 b
b10 2
b10 D
b10 F
b10 H
b11 <
b10 ;
b100011 E
b10 /
b10 G
b10 `
b1000000000100011 8
b1000000000100011 @
b1 1
b1 A
b1 M
b1 N
b1 S
b1 ^
1!
#9000
0!
#12000
0-
b11 3
b11 J
b11 c
b11 e
b10 ,
b10 7
b10 d
b10 g
1#
0'
b11 9
b11 B
b11 K
b11 .
b11 =
b11 I
b10 4
b10 >
b10 b
b1 5
b1 ?
b1 a
b11 2
b11 D
b11 F
b1000 +
b1000 6
b1000 f
b100011 H
b100 <
b11 ;
b10 :
b1000110100 E
b11 /
b11 G
b11 `
b10001000110100 8
b10001000110100 @
b10 1
b10 A
b10 M
b10 N
b10 S
b10 ^
1!
#15000
0!
#18000
b1111111110 R
b1111111110 U
b1111111110 V
b1111111110 Q
b1111111110 X
b1111111110 Z
b1111111110 \
b1111111111 P
b1111111111 W
b1111111111 [
b1111111111 ]
1)
1$
0#
0%
1-
b0 .
b0 =
b0 I
b0 3
b0 J
b0 c
b0 e
b100 9
b100 B
b100 K
b0 4
b0 >
b0 b
b0 5
b0 ?
b0 a
b100 2
b100 D
b100 F
b110100 +
b110100 6
b110100 f
b0 H
b0 <
b0 ;
b0 :
b0 E
b100 /
b100 G
b100 `
b1101000000000000 8
b1101000000000000 @
b11 1
b11 A
b11 M
b11 N
b11 S
b11 ^
1!
#21000
0!
#24000
0)
0$
1#
1%
0-
b110 .
b110 =
b110 I
b110 3
b110 J
b110 c
b110 e
b101 9
b101 B
b101 K
b11 4
b11 >
b11 b
b11 5
b11 ?
b11 a
b1111111101 R
b1111111101 U
b1111111101 V
b101 2
b101 D
b101 F
b1001 +
b1001 6
b1001 f
b1000100 H
b100 <
b100 ;
b100 :
b1000100 E
b1111111101 Q
b1111111101 X
b1111111101 Z
b1111111101 \
b101 /
b101 G
b101 `
b10010001000100 8
b10010001000100 @
b100 1
b100 A
b100 M
b100 N
b100 S
b100 ^
b1111111110 P
b1111111110 W
b1111111110 [
b1111111110 ]
1!
#27000
0!
#30000
b1111111101 P
b1111111101 W
b1111111101 [
b1111111101 ]
b1111111110 Q
b1111111110 X
b1111111110 Z
b1111111110 \
b1111111101 R
b1111111101 U
b1111111101 V
b0 0
b0 C
b0 O
b0 T
1*
1$
0#
0%
0(
b0 9
b0 B
b0 K
b110 5
b110 ?
b110 a
b0 4
b0 >
b0 b
b0 2
b0 D
b0 F
b110101 +
b110101 6
b110101 f
b1000000 H
b0 <
b0 ;
b0 E
b110 /
b110 G
b110 `
b1101010000000000 8
b1101010000000000 @
b101 1
b101 A
b101 M
b101 N
b101 S
b101 ^
1!
#33000
0!
#36000
1%
1'
1(
0*
0$
1-
b1 .
b1 =
b1 I
b0 3
b0 J
b0 c
b0 e
b1 9
b1 B
b1 K
b0 5
b0 ?
b0 a
b1 2
b1 D
b1 F
bz 0
bz C
bz O
bz T
b100000 +
b100000 6
b100000 f
b1 H
b10 <
b1 ;
b0 :
b10010 E
b1111111101 Q
b1111111101 X
b1111111101 Z
b1111111101 \
b1111111101 R
b1111111101 U
b1111111101 V
b1 /
b1 G
b1 `
b1000000000010010 8
b1000000000010010 @
b0 1
b0 A
b0 M
b0 N
b0 S
b0 ^
b1111111110 P
b1111111110 W
b1111111110 [
b1111111110 ]
1!
#39000
0!
#42000
0-
b1 3
b1 J
b1 c
b1 e
b10 9
b10 B
b10 K
b10 .
b10 =
b10 I
b1 4
b1 >
b1 b
b10 2
b10 D
b10 F
b10 H
b11 <
b10 ;
b100011 E
b10 /
b10 G
b10 `
b1000000000100011 8
b1000000000100011 @
b1 1
b1 A
b1 M
b1 N
b1 S
b1 ^
1!
#45000
0!
#48000
1#
0'
b11 3
b11 J
b11 c
b11 e
b11 9
b11 B
b11 K
b11 .
b11 =
b11 I
b10 4
b10 >
b10 b
b1 5
b1 ?
b1 a
b11 2
b11 D
b11 F
b1000 +
b1000 6
b1000 f
b100011 H
b100 <
b11 ;
b10 :
b1000110100 E
b11 /
b11 G
b11 `
b10001000110100 8
b10001000110100 @
b10 1
b10 A
b10 M
b10 N
b10 S
b10 ^
1!
