cpu_tb.vcd
$date
	Fri Feb 28 14:42:59 2020
$end
$version
	Icarus Verilog
$end
$timescale
	10ps
$end
$scope module cpu_tb $end
$var reg 1 ! clk $end
$var reg 1 " reset $end
$scope module micpu $end
$var wire 1 ! clk $end
$var wire 1 " reset $end
$var wire 1 # wez $end
$var wire 1 $ we3 $end
$var wire 1 % s_z $end
$var wire 1 & s_inm $end
$var wire 1 ' s_inc $end
$var wire 6 ( opcode [5:0] $end
$var wire 3 ) opalu [2:0] $end
$scope module datapath $end
$var wire 1 ! clk $end
$var wire 1 " reset $end
$var wire 1 * zalu $end
$var wire 1 # wez $end
$var wire 1 $ we3 $end
$var wire 8 + wd3 [7:0] $end
$var wire 1 % s_z $end
$var wire 10 , s_sumador [9:0] $end
$var wire 10 - s_pc [9:0] $end
$var wire 1 & s_inm $end
$var wire 1 ' s_inc $end
$var wire 8 . s_alu [7:0] $end
$var wire 8 / rd2 [7:0] $end
$var wire 8 0 rd1 [7:0] $end
$var wire 6 1 opcode [5:0] $end
$var wire 3 2 op_alu [2:0] $end
$var wire 16 3 instruccion [15:0] $end
$var wire 10 4 e_pc [9:0] $end
$scope module banco_registros $end
$var wire 1 ! clk $end
$var wire 4 5 ra1 [3:0] $end
$var wire 4 6 ra2 [3:0] $end
$var wire 4 7 wa3 [3:0] $end
$var wire 1 $ we3 $end
$var wire 8 8 wd3 [7:0] $end
$var wire 8 9 rd2 [7:0] $end
$var wire 8 : rd1 [7:0] $end
$upscope $end
$scope module ffz $end
$var wire 1 ! clk $end
$var wire 1 " reset $end
$var wire 1 * d $end
$var wire 1 # carga $end
$var reg 1 % q $end
$upscope $end
$scope module memoria_programa $end
$var wire 1 ! clk $end
$var wire 16 ; rd [15:0] $end
$var wire 10 < a [9:0] $end
$upscope $end
$scope module mux_sum_pal $end
$var wire 10 = d0 [9:0] $end
$var wire 10 > y [9:0] $end
$var wire 1 ' s $end
$var wire 10 ? d1 [9:0] $end
$upscope $end
$scope module mux_wd3 $end
$var wire 8 @ d1 [7:0] $end
$var wire 8 A y [7:0] $end
$var wire 1 & s $end
$var wire 8 B d0 [7:0] $end
$upscope $end
$scope module pc $end
$var wire 1 ! clk $end
$var wire 10 C d [9:0] $end
$var wire 1 " reset $end
$var reg 10 D q [9:0] $end
$upscope $end
$scope module sumador $end
$var wire 10 E a [9:0] $end
$var wire 10 F b [9:0] $end
$var wire 10 G y [9:0] $end
$upscope $end
$scope module uni_art_log $end
$var wire 8 H a [7:0] $end
$var wire 8 I b [7:0] $end
$var wire 8 J y [7:0] $end
$var wire 1 * zero $end
$var wire 3 K op_alu [2:0] $end
$var reg 8 L s [7:0] $end
$upscope $end
$upscope $end
$scope module u $end
$var wire 6 M opcode [5:0] $end
$var wire 1 % s_z $end
$var reg 3 N op_alu [2:0] $end
$var reg 1 ' s_inc $end
$var reg 1 & s_inm $end
$var reg 1 $ we3 $end
$var reg 1 # wez $end
$upscope $end
$upscope $end
$upscope $end
$enddefinitions $end
#0
$dumpvars
bx N
b100000 M
bx L
bx K
bx J
b0 I
b0 H
b1 G
b1 F
b0 E
b0 D
b1 C
bx B
b0 A
b0 @
b1 ?
b1 >
b1 =
b0 <
b1000000000000001 ;
b0 :
b0 9
b0 8
b1 7
b0 6
b0 5
b1 4
b1000000000000001 3
bx 2
b100000 1
b0 0
b0 /
bx .
b0 -
b1 ,
b0 +
x*
bx )
b100000 (
1'
1&
0%
1$
0#
1"
1!
$end
#1000
0"
#3000
0!
#6000
b1010 +
b1010 8
b1010 A
b10 4
b10 >
b10 C
b1010 @
b10 7
b1010 6
b10100010 =
b10 ,
b10 ?
b10 G
b1000000010100010 3
b1000000010100010 ;
b1 -
b1 <
b1 D
b1 E
1!
#9000
0!
#12000
b0 +
b0 8
b0 A
b11 4
b11 >
b11 C
b0 @
b11 7
b0 6
b11 =
b11 ,
b11 ?
b11 G
b1000000000000011 3
b1000000000000011 ;
b10 -
b10 <
b10 D
b10 E
1!
#15000
0!
#18000
b100 +
b100 8
b100 A
b100 4
b100 >
b100 C
b100 @
b111 7
b100 6
b1000111 =
b100 ,
b100 ?
b100 G
b1000000001000111 3
b1000000001000111 ;
b11 -
b11 <
b11 D
b11 E
1!
#21000
0!
#24000
0*
b1010 .
b1010 B
b1010 J
b1010 L
b11 )
b11 2
b11 K
b11 N
1#
0&
b1010 +
b1010 8
b1010 A
b1010 0
b1010 :
b1010 H
b101 4
b101 >
b101 C
b1100 (
b1100 1
b1100 M
b100011 @
b100 7
b11 6
b10 5
b1000110100 =
b101 ,
b101 ?
b101 G
b11001000110100 3
b11001000110100 ;
b100 -
b100 <
b100 D
b100 E
1!
#27000
0!
#30000
0#
1&
1*
b1 +
b1 8
b1 A
b0 .
b0 B
b0 J
b0 L
b0 0
b0 :
b0 H
b110 4
b110 >
b110 C
b100000 (
b100000 1
b100000 M
b1 @
b101 7
b1 6
b0 5
b10101 =
b110 ,
b110 ?
b110 G
b1000000000010101 3
b1000000000010101 ;
b101 -
b101 <
b101 D
b101 E
1!
#33000
0!
#36000
b10 )
b10 2
b10 K
b10 N
1#
0&
0*
b1011 .
b1011 B
b1011 J
b1011 L
b1011 +
b1011 8
b1011 A
b1 /
b1 9
b1 I
b1010 0
b1010 :
b1010 H
b111 4
b111 >
b111 C
b1001 (
b1001 1
b1001 M
b1000101 @
b101 6
b100 5
b1010101 =
b111 ,
b111 ?
b111 G
b10010001010101 3
b10010001010101 ;
b110 -
b110 <
b110 D
b110 E
1!
#39000
0!
#42000
b1011 0
b1011 :
b1011 H
b0 /
b0 9
b0 I
b1000 4
b1000 >
b1000 C
b1010001 @
b1 7
b1 6
b101 5
b100010001 =
b1000 ,
b1000 ?
b1000 G
b10010100010001 3
b10010100010001 ;
b111 -
b111 <
b111 D
b111 E
1!
#45000
0!
#48000
b1 +
b1 8
b1 A
0#
1&
b0 0
b0 :
b0 H
b1011 /
b1011 9
b1011 I
b1001 4
b1001 >
b1001 C
b100000 (
b100000 1
b100000 M
b1 @
b101 7
b0 5
b10101 =
b1001 ,
b1001 ?
b1001 G
b1000000000010101 3
b1000000000010101 ;
b1000 -
b1000 <
b1000 D
b1000 E
1!
#51000
0!
#54000
1#
0&
b1 .
b1 B
b1 J
b1 L
b1 +
b1 8
b1 A
b1 /
b1 9
b1 I
b1010 4
b1010 >
b1010 C
b1000 (
b1000 1
b1000 M
b110101 @
b11 7
b101 6
b11 5
b1101010011 =
b1010 ,
b1010 ?
b1010 G
b10001101010011 3
b10001101010011 ;
b1001 -
b1001 <
b1001 D
b1001 E
1!
#57000
0!
#60000
b11 )
b11 2
b11 K
b11 N
b11 +
b11 8
b11 A
b11 .
b11 B
b11 J
b11 L
b100 0
b100 :
b100 H
b1011 4
b1011 >
b1011 C
b1101 (
b1101 1
b1101 M
b1110011 @
b1000 7
b11 6
b111 5
b1100111000 =
b1011 ,
b1011 ?
b1011 G
b11011100111000 3
b11011100111000 ;
b1010 -
b1010 <
b1010 D
b1010 E
1!
#63000
0!
#66000
0#
0$
0'
b0 /
b0 9
b0 I
b11 0
b11 :
b11 H
b100 4
b100 >
b100 C
b110010 (
b110010 1
b110010 M
b10000000 @
b100 7
b0 6
b1000 5
b100 =
b1100 ,
b1100 ?
b1100 G
b1100100000000100 3
b1100100000000100 ;
b1011 -
b1011 <
b1011 D
b1011 E
1!
#69000
0!
#72000
1#
1$
1'
b1001 +
b1001 8
b1001 A
b1001 .
b1001 B
b1001 J
b1001 L
b1 /
b1 9
b1 I
b1010 0
b1010 :
b1010 H
b101 4
b101 >
b101 C
b1100 (
b1100 1
b1100 M
b100011 @
b11 6
b10 5
b1000110100 =
b101 ,
b101 ?
b101 G
b11001000110100 3
b11001000110100 ;
b100 -
b100 <
b100 D
b100 E
1!
#75000
0!
#78000
0#
1&
b1 +
b1 8
b1 A
b11110101 .
b11110101 B
b11110101 J
b11110101 L
b1011 /
b1011 9
b1011 I
b0 0
b0 :
b0 H
b110 4
b110 >
b110 C
b100000 (
b100000 1
b100000 M
b1 @
b101 7
b1 6
b0 5
b10101 =
b110 ,
b110 ?
b110 G
b1000000000010101 3
b1000000000010101 ;
b101 -
b101 <
b101 D
b101 E
1!
#81000
0!
#84000
b10 )
b10 2
b10 K
b10 N
1#
0&
b1010 .
b1010 B
b1010 J
b1010 L
b1010 +
b1010 8
b1010 A
b1 /
b1 9
b1 I
b1001 0
b1001 :
b1001 H
b111 4
b111 >
b111 C
b1001 (
b1001 1
b1001 M
b1000101 @
b101 6
b100 5
b1010101 =
b111 ,
b111 ?
b111 G
b10010001010101 3
b10010001010101 ;
b110 -
b110 <
b110 D
b110 E
1!
#87000
0!
#90000
b10101 +
b10101 8
b10101 A
b10101 .
b10101 B
b10101 J
b10101 L
b1010 0
b1010 :
b1010 H
b1011 /
b1011 9
b1011 I
b1000 4
b1000 >
b1000 C
b1010001 @
b1 7
b1 6
b101 5
b100010001 =
b1000 ,
b1000 ?
b1000 G
b10010100010001 3
b10010100010001 ;
b111 -
b111 <
b111 D
b111 E
1!
#93000
0!
#96000
b1 +
b1 8
b1 A
0#
1&
b0 0
b0 :
b0 H
b10101 /
b10101 9
b10101 I
b1001 4
b1001 >
b1001 C
b100000 (
b100000 1
b100000 M
b1 @
b101 7
b0 5
b10101 =
b1001 ,
b1001 ?
b1001 G
b1000000000010101 3
b1000000000010101 ;
b1000 -
b1000 <
b1000 D
b1000 E
1!
#99000
0!
#102000
1#
0&
b10 .
b10 B
b10 J
b10 L
b10 +
b10 8
b10 A
b1 /
b1 9
b1 I
b1 0
b1 :
b1 H
b1010 4
b1010 >
b1010 C
b1000 (
b1000 1
b1000 M
b110101 @
b11 7
b101 6
b11 5
b1101010011 =
b1010 ,
b1010 ?
b1010 G
b10001101010011 3
b10001101010011 ;
b1001 -
b1001 <
b1001 D
b1001 E
1!
#105000
0!
#108000
b11 )
b11 2
b11 K
b11 N
b10 +
b10 8
b10 A
b10 .
b10 B
b10 J
b10 L
b10 /
b10 9
b10 I
b100 0
b100 :
b100 H
b1011 4
b1011 >
b1011 C
b1101 (
b1101 1
b1101 M
b1110011 @
b1000 7
b11 6
b111 5
b1100111000 =
b1011 ,
b1011 ?
b1011 G
b11011100111000 3
b11011100111000 ;
b1010 -
b1010 <
b1010 D
b1010 E
1!
#111000
0!
#114000
0#
0$
0'
b0 /
b0 9
b0 I
b10 0
b10 :
b10 H
b100 4
b100 >
b100 C
b110010 (
b110010 1
b110010 M
b10000000 @
b100 7
b0 6
b1000 5
b100 =
b1100 ,
b1100 ?
b1100 G
b1100100000000100 3
b1100100000000100 ;
b1011 -
b1011 <
b1011 D
b1011 E
1!
#117000
0!
#120000
1#
1$
1'
b1000 +
b1000 8
b1000 A
b1000 .
b1000 B
b1000 J
b1000 L
b10 /
b10 9
b10 I
b1010 0
b1010 :
b1010 H
b101 4
b101 >
b101 C
b1100 (
b1100 1
b1100 M
b100011 @
b11 6
b10 5
b1000110100 =
b101 ,
b101 ?
b101 G
b11001000110100 3
b11001000110100 ;
b100 -
b100 <
b100 D
b100 E
1!
#123000
0!
#126000
0#
1&
b1 +
b1 8
b1 A
b11101011 .
b11101011 B
b11101011 J
b11101011 L
b10101 /
b10101 9
b10101 I
b0 0
b0 :
b0 H
b110 4
b110 >
b110 C
b100000 (
b100000 1
b100000 M
b1 @
b101 7
b1 6
b0 5
b10101 =
b110 ,
b110 ?
b110 G
b1000000000010101 3
b1000000000010101 ;
b101 -
b101 <
b101 D
b101 E
1!
#129000
0!
#132000
b10 )
b10 2
b10 K
b10 N
1#
0&
b1001 .
b1001 B
b1001 J
b1001 L
b1001 +
b1001 8
b1001 A
b1 /
b1 9
b1 I
b1000 0
b1000 :
b1000 H
b111 4
b111 >
b111 C
b1001 (
b1001 1
b1001 M
b1000101 @
b101 6
b100 5
b1010101 =
b111 ,
b111 ?
b111 G
b10010001010101 3
b10010001010101 ;
b110 -
b110 <
b110 D
b110 E
1!
#135000
0!
#138000
b11110 +
b11110 8
b11110 A
b11110 .
b11110 B
b11110 J
b11110 L
b1001 0
b1001 :
b1001 H
b10101 /
b10101 9
b10101 I
b1000 4
b1000 >
b1000 C
b1010001 @
b1 7
b1 6
b101 5
b100010001 =
b1000 ,
b1000 ?
b1000 G
b10010100010001 3
b10010100010001 ;
b111 -
b111 <
b111 D
b111 E
1!
#141000
0!
#144000
b1 +
b1 8
b1 A
0#
1&
b0 0
b0 :
b0 H
b11110 /
b11110 9
b11110 I
b1001 4
b1001 >
b1001 C
b100000 (
b100000 1
b100000 M
b1 @
b101 7
b0 5
b10101 =
b1001 ,
b1001 ?
b1001 G
b1000000000010101 3
b1000000000010101 ;
b1000 -
b1000 <
b1000 D
b1000 E
1!
#147000
0!
#150000
1#
0&
b11 .
b11 B
b11 J
b11 L
b11 +
b11 8
b11 A
b1 /
b1 9
b1 I
b10 0
b10 :
b10 H
b1010 4
b1010 >
b1010 C
b1000 (
b1000 1
b1000 M
b110101 @
b11 7
b101 6
b11 5
b1101010011 =
b1010 ,
b1010 ?
b1010 G
b10001101010011 3
b10001101010011 ;
b1001 -
b1001 <
b1001 D
b1001 E
1!
#153000
0!
#156000
b11 )
b11 2
b11 K
b11 N
b1 +
b1 8
b1 A
b1 .
b1 B
b1 J
b1 L
b11 /
b11 9
b11 I
b100 0
b100 :
b100 H
b1011 4
b1011 >
b1011 C
b1101 (
b1101 1
b1101 M
b1110011 @
b1000 7
b11 6
b111 5
b1100111000 =
b1011 ,
b1011 ?
b1011 G
b11011100111000 3
b11011100111000 ;
b1010 -
b1010 <
b1010 D
b1010 E
1!
#159000
0!
#162000
0#
0$
0'
b0 /
b0 9
b0 I
b1 0
b1 :
b1 H
b100 4
b100 >
b100 C
b110010 (
b110010 1
b110010 M
b10000000 @
b100 7
b0 6
b1000 5
b100 =
b1100 ,
b1100 ?
b1100 G
b1100100000000100 3
b1100100000000100 ;
b1011 -
b1011 <
b1011 D
b1011 E
1!
#165000
0!
#168000
1#
1$
1'
b111 +
b111 8
b111 A
b111 .
b111 B
b111 J
b111 L
b11 /
b11 9
b11 I
b1010 0
b1010 :
b1010 H
b101 4
b101 >
b101 C
b1100 (
b1100 1
b1100 M
b100011 @
b11 6
b10 5
b1000110100 =
b101 ,
b101 ?
b101 G
b11001000110100 3
b11001000110100 ;
b100 -
b100 <
b100 D
b100 E
1!
#171000
0!
#174000
0#
1&
b1 +
b1 8
b1 A
b11100010 .
b11100010 B
b11100010 J
b11100010 L
b11110 /
b11110 9
b11110 I
b0 0
b0 :
b0 H
b110 4
b110 >
b110 C
b100000 (
b100000 1
b100000 M
b1 @
b101 7
b1 6
b0 5
b10101 =
b110 ,
b110 ?
b110 G
b1000000000010101 3
b1000000000010101 ;
b101 -
b101 <
b101 D
b101 E
1!
#177000
0!
#180000
b10 )
b10 2
b10 K
b10 N
1#
0&
b1000 .
b1000 B
b1000 J
b1000 L
b1000 +
b1000 8
b1000 A
b1 /
b1 9
b1 I
b111 0
b111 :
b111 H
b111 4
b111 >
b111 C
b1001 (
b1001 1
b1001 M
b1000101 @
b101 6
b100 5
b1010101 =
b111 ,
b111 ?
b111 G
b10010001010101 3
b10010001010101 ;
b110 -
b110 <
b110 D
b110 E
1!
#183000
0!
#186000
b100110 +
b100110 8
b100110 A
b100110 .
b100110 B
b100110 J
b100110 L
b1000 0
b1000 :
b1000 H
b11110 /
b11110 9
b11110 I
b1000 4
b1000 >
b1000 C
b1010001 @
b1 7
b1 6
b101 5
b100010001 =
b1000 ,
b1000 ?
b1000 G
b10010100010001 3
b10010100010001 ;
b111 -
b111 <
b111 D
b111 E
1!
#189000
0!
#192000
b1 +
b1 8
b1 A
0#
1&
b0 0
b0 :
b0 H
b100110 /
b100110 9
b100110 I
b1001 4
b1001 >
b1001 C
b100000 (
b100000 1
b100000 M
b1 @
b101 7
b0 5
b10101 =
b1001 ,
b1001 ?
b1001 G
b1000000000010101 3
b1000000000010101 ;
b1000 -
b1000 <
b1000 D
b1000 E
1!
#195000
0!
#198000
1#
0&
b100 .
b100 B
b100 J
b100 L
b100 +
b100 8
b100 A
b1 /
b1 9
b1 I
b11 0
b11 :
b11 H
b1010 4
b1010 >
b1010 C
b1000 (
b1000 1
b1000 M
b110101 @
b11 7
b101 6
b11 5
b1101010011 =
b1010 ,
b1010 ?
b1010 G
b10001101010011 3
b10001101010011 ;
b1001 -
b1001 <
b1001 D
b1001 E
1!
#201000
0!
#204000
1*
b11 )
b11 2
b11 K
b11 N
b0 +
b0 8
b0 A
b0 .
b0 B
b0 J
b0 L
b100 /
b100 9
b100 I
b100 0
b100 :
b100 H
b1011 4
b1011 >
b1011 C
b1101 (
b1101 1
b1101 M
b1110011 @
b1000 7
b11 6
b111 5
b1100111000 =
b1011 ,
b1011 ?
b1011 G
b11011100111000 3
b11011100111000 ;
b1010 -
b1010 <
b1010 D
b1010 E
1!
#207000
0!
#210000
0#
0$
b0 /
b0 9
b0 I
b0 0
b0 :
b0 H
b1100 4
b1100 >
b1100 C
b110010 (
b110010 1
b110010 M
b10000000 @
b100 7
b0 6
b1000 5
b100 =
1%
b1100 ,
b1100 ?
b1100 G
b1100100000000100 3
b1100100000000100 ;
b1011 -
b1011 <
b1011 D
b1011 E
1!
#213000
0!
#216000
b10 )
b10 2
b10 K
b10 N
1#
1$
0*
b100110 +
b100110 8
b100110 A
b100110 .
b100110 B
b100110 J
b100110 L
b100110 0
b100110 :
b100110 H
b1101 4
b1101 >
b1101 C
b1000 (
b1000 1
b1000 M
b10000 @
b1 7
b1 5
b100000001 =
b1101 ,
b1101 ?
b1101 G
b10000100000001 3
b10000100000001 ;
b1100 -
b1100 <
b1100 D
b1100 E
1!
#219000
0!
#222000
b0 )
b0 2
b0 K
b0 N
1*
b0 +
b0 8
b0 A
b0 .
b0 B
b0 J
b0 L
b0 0
b0 :
b0 H
b1110 4
b1110 >
b1110 C
b0 (
b0 1
b0 M
b0 @
b0 7
b0 5
b0 =
0%
b1110 ,
b1110 ?
b1110 G
b0 3
b0 ;
b1101 -
b1101 <
b1101 D
b1101 E
1!
#225000
0!
#228000
b1111 4
b1111 >
b1111 C
b1111 ,
b1111 ?
b1111 G
b1110 -
b1110 <
b1110 D
b1110 E
1%
1!
#231000
0!
#234000
b10000 4
b10000 >
b10000 C
b10000 ,
b10000 ?
b10000 G
b1111 -
b1111 <
b1111 D
b1111 E
1!
#237000
0!
#240000
b10001 4
b10001 >
b10001 C
b10001 ,
b10001 ?
b10001 G
b10000 -
b10000 <
b10000 D
b10000 E
1!
#243000
0!
#246000
b10010 4
b10010 >
b10010 C
b10010 ,
b10010 ?
b10010 G
b10001 -
b10001 <
b10001 D
b10001 E
1!
#249000
0!
#252000
b10011 4
b10011 >
b10011 C
b10011 ,
b10011 ?
b10011 G
b10010 -
b10010 <
b10010 D
b10010 E
1!
#255000
0!
#258000
b10100 4
b10100 >
b10100 C
b10100 ,
b10100 ?
b10100 G
b10011 -
b10011 <
b10011 D
b10011 E
1!
#261000
0!
#264000
b10101 4
b10101 >
b10101 C
b10101 ,
b10101 ?
b10101 G
b10100 -
b10100 <
b10100 D
b10100 E
1!
#267000
0!
#270000
b10110 4
b10110 >
b10110 C
b10110 ,
b10110 ?
b10110 G
b10101 -
b10101 <
b10101 D
b10101 E
1!
#273000
0!
#276000
b10111 4
b10111 >
b10111 C
b10111 ,
b10111 ?
b10111 G
b10110 -
b10110 <
b10110 D
b10110 E
1!
#279000
0!
#282000
b11000 4
b11000 >
b11000 C
b11000 ,
b11000 ?
b11000 G
b10111 -
b10111 <
b10111 D
b10111 E
1!
#285000
0!
#288000
b11001 4
b11001 >
b11001 C
b11001 ,
b11001 ?
b11001 G
b11000 -
b11000 <
b11000 D
b11000 E
1!
#291000
0!
#294000
b11010 4
b11010 >
b11010 C
b11010 ,
b11010 ?
b11010 G
b11001 -
b11001 <
b11001 D
b11001 E
1!
#297000
0!
#300000
b11011 4
b11011 >
b11011 C
b11011 ,
b11011 ?
b11011 G
b11010 -
b11010 <
b11010 D
b11010 E
1!
